EvoGeno_Sept14
…
## `summarise()` ungrouping output (override with `.groups` argument)

total_09_13_2020 <- report_09_13_2020 %>% 
  group_by(Country_Region) %>% 
  summarize(
    total_deaths=sum(Deaths),
    total_confirmed=sum(Confirmed),
    total_recovered=sum(Recovered)
  )

## `summarise()` ungrouping output (override with `.groups` argument)

total_03_13_2020

## # A tibble: 125 x 4
##    Country_Region      total_deaths total_confirmed total_recovered
##    <chr>                      <dbl>           <dbl>           <dbl>
##  1 Afghanistan                    0               7               0
##  2 Albania                        1              33               0
##  3 Algeria                        2              26               8
##  4 Andorra                        0               1               0
##  5 Antigua and Barbuda            0               1               0
##  6 Argentina                      2              31               0
##  7 Armenia                        0               8               0
##  8 Aruba                          0               2               0
##  9 Australia                      3             200              23
## 10 Austria                        1             504               6
## # ... with 115 more rows

total_09_13_2020

## # A tibble: 188 x 4
##    Country_Region      total_deaths total_confirmed total_recovered
##    <chr>                      <dbl>           <dbl>           <dbl>
##  1 Afghanistan                 1420           38716           31638
##  2 Albania                      334           11353            6569
##  3 Algeria                     1612           48254           34037
##  4 Andorra                       53            1344             943
##  5 Angola                       134            3388            1301
##  6 Antigua and Barbuda            3              95              91
##  7 Argentina                  11352          555537          419513
##  8 Armenia                      916           45862           41659
##  9 Australia                    816           26692           23463
## 10 Austria                      756           33159           26760
## # ... with 178 more rows

3. To get counts for confirmed cases per U.S state use filter() to select US and group_by and summarize as above.

Total deaths for March 13, 2020

report_03_13_2020 %>% 
  filter(Country_Region =="US") %>% 
  group_by(Province_State, Country_Region) %>% 
  summarise(Deaths) %>% 
  arrange(Deaths)

## `summarise()` regrouping output by 'Province_State' (override with `.groups` argument)

## # A tibble: 53 x 3
## # Groups:   Province_State [53]
##    Province_State       Country_Region Deaths
##    <chr>                <chr>           <dbl>
##  1 Alabama              US                  0
##  2 Alaska               US                  0
##  3 Arizona              US                  0
##  4 Arkansas             US                  0
##  5 Colorado             US                  0
##  6 Connecticut          US                  0
##  7 Delaware             US                  0
##  8 Diamond Princess     US                  0
##  9 District of Columbia US                  0
## 10 Grand Princess       US                  0
## # ... with 43 more rows

Total deaths for September 13, 2020

report_09_13_2020 %>% 
  filter(Country_Region=="US") %>% 
  group_by(Province_State) %>% 
  summarise(Deaths) %>% 
  arrange(Deaths)

## `summarise()` regrouping output by 'Province_State' (override with `.groups` argument)

## # A tibble: 3,270 x 2
## # Groups:   Province_State [58]
##    Province_State Deaths
##    <chr>           <dbl>
##  1 Alabama             0
##  2 Alaska              0
##  3 Alaska              0
##  4 Alaska              0
##  5 Alaska              0
##  6 Alaska              0
##  7 Alaska              0
##  8 Alaska              0
##  9 Alaska              0
## 10 Alaska              0
## # ... with 3,260 more rows
…
