Lab5_Exercises
…
Exercise 8 - Using Facet_Wraps make a graph from the times series data with the 10 countries with the hightest death total. Format the table to look nice in the report by changing the number of rows in your graph and/or adjusting the height in the R code chunk header.

topten <- time_series_deaths_long %>% 
  group_by(Date) %>% 
  arrange(desc(Deaths))

topten

## # A tibble: 66,500 x 6
## # Groups:   Date [250]
##    Province_State Country_Region   Lat  Long Date    Deaths
##    <chr>          <chr>          <dbl> <dbl> <chr>    <dbl>
##  1 <NA>           US                40  -100 9/27/20 204756
##  2 <NA>           US                40  -100 9/26/20 204490
##  3 <NA>           US                40  -100 9/25/20 203750
##  4 <NA>           US                40  -100 9/24/20 202798
##  5 <NA>           US                40  -100 9/23/20 201884
##  6 <NA>           US                40  -100 9/22/20 200786
##  7 <NA>           US                40  -100 9/21/20 199865
##  8 <NA>           US                40  -100 9/20/20 199509
##  9 <NA>           US                40  -100 9/19/20 199282
## 10 <NA>           US                40  -100 9/18/20 198570
## # ... with 66,490 more rows
…
